…
    ## Warning: There were 100 warnings in `mutate()`.
    ## The first warning was:
    ## ℹ In argument: `rmse_mod3 = map2_dbl(mod3, test, function(mod, test) rmse(model
    ##   = mod, data = test))`.
    ## Caused by warning in `predict.lm()`:
    ## ! prediction from rank-deficient fit; attr(*, "non-estim") has doubtful cases
    ## ℹ Run `dplyr::last_dplyr_warnings()` to see the 99 remaining warnings.

``` r
cv_df
```

    ## # A tibble: 100 × 9
    ##    train                   test                  .id   mod1   mod2   mod3  
    ##    <list>                  <list>                <chr> <list> <list> <list>
    ##  1 <resample [3,473 x 20]> <resample [869 x 20]> 001   <lm>   <lm>   <lm>  
    ##  2 <resample [3,473 x 20]> <resample [869 x 20]> 002   <lm>   <lm>   <lm>  
    ##  3 <resample [3,473 x 20]> <resample [869 x 20]> 003   <lm>   <lm>   <lm>  
    ##  4 <resample [3,473 x 20]> <resample [869 x 20]> 004   <lm>   <lm>   <lm>  
    ##  5 <resample [3,473 x 20]> <resample [869 x 20]> 005   <lm>   <lm>   <lm>  
    ##  6 <resample [3,473 x 20]> <resample [869 x 20]> 006   <lm>   <lm>   <lm>  
    ##  7 <resample [3,473 x 20]> <resample [869 x 20]> 007   <lm>   <lm>   <lm>  
    ##  8 <resample [3,473 x 20]> <resample [869 x 20]> 008   <lm>   <lm>   <lm>  
    ##  9 <resample [3,473 x 20]> <resample [869 x 20]> 009   <lm>   <lm>   <lm>  
    ## 10 <resample [3,473 x 20]> <resample [869 x 20]> 010   <lm>   <lm>   <lm>  
    ## # ℹ 90 more rows
    ## # ℹ 3 more variables: rmse_mod1 <dbl>, rmse_mod2 <dbl>, rmse_mod3 <dbl>
…
